<?xml version="1.0" encoding="UTF-8"?>
<svg width="14px" height="13px" viewBox="0 0 14 13" version="1.1" xmlns="http://www.w3.org/2000/svg" xmlns:xlink="http://www.w3.org/1999/xlink">
    <!-- Generator: Sketch 47.1 (45422) - http://www.bohemiancoding.com/sketch -->
    <title>Filled_Icons</title>
    <desc>Created with Sketch.</desc>
    <defs></defs>
    <g id="Canale-Fuoristrada" stroke="none" stroke-width="1" fill="none" fill-rule="evenodd">
        <g id="canale-fuoristrada" transform="translate(-135.000000, -123.000000)" fill-rule="nonzero" fill="#FFFFFF">
            <g id="places-home-1" transform="translate(134.000000, 121.000000)">
                <g id="Filled_Icons" transform="translate(1.333333, 2.040000)">
                    <path d="M13.138,6.31924 L7.138,0.19924 C6.87733333,-0.06664 6.456,-0.06664 6.19533333,0.19924 L0.195333333,6.31924 C0.00466666667,6.51372 -0.0526666667,6.80612 0.0506666667,7.06044 C0.153333333,7.31476 0.397333333,7.48 0.666666667,7.48 L2,7.48 L2,12.92 L5.33333333,12.92 L5.33333333,9.52 L8,9.52 L8,12.92 L11.3333333,12.92 L11.3333333,7.48 L12.6666667,7.48 C12.936,7.48 13.18,7.31476 13.2826667,7.06044 C13.386,6.80612 13.3286667,6.51372 13.138,6.31924 Z" id="Shape"></path>
                </g>
            </g>
        </g>
    </g>
</svg>